{
    "auth":
    {
        "screen_name": "Tu Nombre de Twitter sin @",
        "CONSUMER_KEY": "Tu Key Consumer - Clave de consumidor",
        "CONSUMER_SECRET": "Tu Secret Consumer - Secreto de consumidor",
        "ACCESS_TOKEN": "El Token Acces de tu applicación",
        "ACCESS_SECRET": "Tu Acceso secreto de tu aplicación"
    },
    "lang": "Searh your language here: https://en.wikipedia.org/wiki/List_of_ISO_639-1_codes (e.g. es)",
    "results_search": 7,
    "blacklisted": ["sex","ass","vagina","satanic","pene","musculoso","culazo","culo","pene","diabolico","feminista","satanico","satánico","dead","muerte","porno","terror","miedo"],
    "keywords":["informatika","informatica","informática","pyme","empresa","machine learning","odoo","empresa","tecnología","producción","textil","españa","industria","marketing"],
    "whitelisted_accounts": ["Put twitter accounts that you don't wnat to unfollow in here, like this: ", "drake", "NFL", "twitterU"],
    "messages":["Hola mira las cosas que tengo en mi Twitter!","Buen post","impresiona","hace que pensar","me gusta", "crack!"]
}
